Section Education: Formal Education
…
#### role model studies

#extracting all role model columns with gender and project sites
role_model_preq_currentyr<- PreQ.CurrYear %>% select(matches('Proj|Gende|Role'))
                                                
role_model_preq_currentyr[role_model_preq_currentyr==""]<- "Not Available"  # removing blanks with NA values
role_model_preq_currentyr

## # A tibble: 144 x 13
##    Project.Site Gender `Role Model - M~ `Role Model - F~ `Role Model - B~
##    <chr>        <chr>  <chr>            <chr>            <chr>           
##  1 Mazar-e-Sha~ Male   Not Available    Father           Not Available   
##  2 Mazar-e-Sha~ Male   Not Available    Father           Not Available   
##  3 Mazar-e-Sha~ Male   Mother           Not Available    Not Available   
##  4 Mazar-e-Sha~ Male   Mother           Father           Not Available   
##  5 Mazar-e-Sha~ Male   Mother           Father           Not Available   
##  6 Mazar-e-Sha~ Male   Mother           Father           Not Available   
##  7 Mazar-e-Sha~ Male   Mother           Father           Not Available   
##  8 Mazar-e-Sha~ Male   Mother           Father           Not Available   
##  9 Mazar-e-Sha~ Male   Mother           Father           Brother         
## 10 Mazar-e-Sha~ Male   Mother           Father           Not Available   
## # ... with 134 more rows, and 8 more variables: `Role Model -
## #   Sister` <chr>, `Role Model - Other family member` <chr>, `Role Model -
## #   Friends at Skateistan` <chr>, `Role Model - Skateistan
## #   Educator` <chr>, `Role Model - Someone older than me at
## #   Skateistan` <chr>, `Role Model - Other` <chr>, `Role Model - Not
## #   sure` <chr>, `Role Model - Would you like to say who? How do you feel
## #   when you talk to them about your problems?` <chr>
…
### post questionnaire BTS 2017-18
PostQ.PrevYear <- read_excel("Copy of Student Post-Questionnaire Back-to-School2017-2018 Graduating Group (Afghanistan).xlsx")

## New names:
## * `` -> ...11
## * `` -> ...13
## * `` -> ...14
## * `` -> ...15
## * `` -> ...16
## * ... and 63 more problems

PostQ.PrevYear

## # A tibble: 88 x 90
##    `Respondent ID` `Collector ID` `Start Date`        `End Date`         
##              <dbl>          <dbl> <dttm>              <dttm>             
##  1              NA             NA NA                  NA                 
##  2      6758401433      170768541 2018-03-15 07:47:08 2018-03-15 07:54:59
##  3      6758391015      170768541 2018-03-15 07:41:39 2018-03-15 07:45:46
##  4      6758386209      170768541 2018-03-15 07:35:58 2018-03-15 07:41:25
##  5      6758369511      170768541 2018-03-15 07:20:15 2018-03-15 07:26:15
##  6      6758362620      170768541 2018-03-15 07:16:18 2018-03-15 07:20:02
##  7      6758358336      170768541 2018-03-15 07:07:37 2018-03-15 07:16:07
##  8      6758348483      170768541 2018-03-15 07:01:40 2018-03-15 07:07:23
##  9      6758341266      170768541 2018-03-15 06:48:52 2018-03-15 07:01:03
## 10      6758302150      170768541 2018-03-15 06:16:25 2018-03-15 06:25:27
## # ... with 78 more rows, and 86 more variables: `IP Address` <chr>, `Email
## #   Address` <lgl>, `First Name` <lgl>, `Last Name` <lgl>, `Custom Data
## #   1` <lgl>, `Project Site:` <chr>, ...11 <chr>, `What is your Group
## #   name?` <chr>, ...13 <chr>, ...14 <chr>, ...15 <chr>, ...16 <chr>,
## #   `What is your name? (Optional)` <chr>, `What is your gender?` <chr>,
## #   ...19 <chr>, ...20 <chr>, `My experience coming to BTS classes has
## #   been... [R5]` <chr>, ...22 <chr>, ...23 <chr>, ...24 <chr>,
## #   ...25 <chr>, ...26 <chr>, `How safe do you feel at Skateistan?` <chr>,
## #   ...28 <chr>, ...29 <chr>, ...30 <chr>, ...31 <chr>, ...32 <chr>,
…
  tidyr::unite("I am good at math", "...64", "...65", "...66", "...67", "...68", sep = "", remove = TRUE) %>%
  tidyr::unite("I am good at skateboarding and sports", "...69", "...70", "...71", "...72", "...73", sep = "", remove = TRUE) %>%
  tidyr::unite("I am good at other sports", "...74", "...75", "...76", "...77", "...78", sep = "", remove = TRUE) %>%
  dplyr::rename("Comment on other sports" = "...79") %>%
  tidyr::unite("Tell us about your work history", "Tell us about your work history", "...81","...82", "...83", sep = "", remove = TRUE) %>%
  dplyr::rename("Would you like to say what kind of work? If you have stopped working, please explain why" = "...84") %>%
  tidyr::unite("My parents/family want me to complete my education until", "My parents/family want me to complete my education until...",
               "...86", "...87", "...88", "...89", sep = "", remove = TRUE) %>%
  dplyr::rename("Education level - Why/why not?" = "...90") 
PostQ.PrevYear$`I am good at math`[PostQ.PrevYear$`I am good at math` == "Neutral |"] <- "Neutral"
PostQ.PrevYear$`I am good at reading and writing`[PostQ.PrevYear$`I am good at reading and writing` == "Neutral |"] <- "Neutral"
PostQ.PrevYear$`I have learned a lot of useful skills and lessons since coming to BTS classes at Skateistan`[PostQ.PrevYear$`I have learned a lot of useful skills and lessons since coming to BTS classes at Skateistan` == "Neutral |"] <- "Neutral"
PostQ.PrevYear

## # A tibble: 87 x 41
##    `Respondent ID` `Collector ID` `Start Date` `End Date` `IP Address`
##    <chr>           <chr>          <chr>        <chr>      <chr>       
##  1 6758401433      170768541      2018-03-15 ~ 2018-03-1~ 103.224.127~
##  2 6758391015      170768541      2018-03-15 ~ 2018-03-1~ 103.224.127~
##  3 6758386209      170768541      2018-03-15 ~ 2018-03-1~ 103.224.127~
##  4 6758369511      170768541      2018-03-15 ~ 2018-03-1~ 103.224.127~
##  5 6758362620      170768541      2018-03-15 ~ 2018-03-1~ 103.224.127~
##  6 6758358336      170768541      2018-03-15 ~ 2018-03-1~ 103.224.127~
##  7 6758348483      170768541      2018-03-15 ~ 2018-03-1~ 103.224.127~
##  8 6758341266      170768541      2018-03-15 ~ 2018-03-1~ 103.224.127~
##  9 6758302150      170768541      2018-03-15 ~ 2018-03-1~ 103.224.127~
## 10 6758289225      170768541      2018-03-15 ~ 2018-03-1~ 103.224.127~
## # ... with 77 more rows, and 36 more variables: `Email Address` <chr>,
## #   `First Name` <chr>, `Last Name` <chr>, `Custom Data 1` <chr>, `Project
## #   Site` <chr>, `Group Name` <chr>, Name <chr>, Gender <chr>, `My
## #   experience coming to BTS classes has been` <chr>, `Comment (experience
## #   coming to BTS classes)` <chr>, `How safe do you feel at
## #   Skateistan?` <chr>, `Comment (safety at Skateistan)` <chr>,
## #   `Confidence since joining the program has` <chr>, `Comment (confidence
## #   since joining Skateistan)` <chr>, `I have learned a lot of useful
## #   skills and lessons since coming to BTS classes at Skateistan` <chr>,
…
#extracting all role model columns with gender and project sites
role_model_post_prevyr<- PostQ.PrevYear%>% select(matches('Proj|Gende|Role'))
role_model_post_prevyr[role_model_post_prevyr==""]<- "Not Available"  # removing blanks with NA values
role_model_post_prevyr

## # A tibble: 87 x 11
##    `Project Site` Gender `Role Model - M~ `Role Model - F~ `Role Model - B~
##    <chr>          <chr>  <chr>            <chr>            <chr>           
##  1 Kabul          Female Mother           Not Available    Not Available   
##  2 Kabul          Female Mother           Not Available    Not Available   
##  3 Kabul          Female Mother           Not Available    Not Available   
##  4 Kabul          Female Mother           Not Available    Not Available   
##  5 Kabul          Female Mother           Not Available    Not Available   
##  6 Kabul          Female Mother           Not Available    Not Available   
##  7 Kabul          Female Mother           Not Available    Not Available   
##  8 Kabul          Female Mother           Not Available    Not Available   
##  9 Kabul          Male   Mother           Father           Not Available   
## 10 Kabul          Male   Mother           Not Available    Not Available   
## # ... with 77 more rows, and 6 more variables: `Role Model - Other family
## #   member` <chr>, `Role Model - Friends at Skateistan` <chr>, `Role Model
## #   - Skateistan Educator` <chr>, `Role Model - Someone older than me at
## #   Skateistan` <chr>, `Role Model - Other` <chr>, `Role Model - Would you
## #   like to say who?` <chr>
…
